{
  "example": {
    "owner": "enchora",
    "fixes": {
      "value": 0,
      "currency": {
        "_id": "/EUR/Euro"
      }
    },
    "percentage": 0.2,
    "constraint": {
      "firstCampaign": false,
      "min": {
        "value": 0,
        "currency": {
          "_id": "/EUR/Euro"
        }
      },
      "max": {
        "value": 0,
        "currency": {
          "_id": "/EUR/Euro"
        }
      }
    }
  },
  "sconto20perc": {
    "owner": "enchora",
    "percentage": 0.2,
    "constraint": {
      "firstCampaign": false
    }
  },
  "sconto10perc": {
    "owner": "enchora",
    "percentage": 0.1,
    "constraint": {
      "firstCampaign": false
    }
  },
  "sconto50perc": {
    "owner": "enchora",
    "percentage": 0.5,
    "constraint": {
      "firstCampaign": true,
      "min": {
        "value": 10000,
        "currency": {
          "_id": "/EUR/Euro"
        }
      }
    }
  },
  "TommasoBabi": {
    "_id": "TommasoBabi",
    "owner": "enchora",
    "fixes": {
      "value": 100,
      "currency": {
        "_id": "/EUR/Euro"
      }
    },
    "constraint": {
      "firstCampaign": true,
      "min": {
        "value": 500,
        "currency": {
          "_id": "/EUR/Euro"
        }
      }
    }
  },
  "influencer": {
    "owner": "influencer",
    "fixes": {
      "value": 100,
      "currency": {
        "_id": "/EUR/Euro"
      }
    },
    "constraint": {
      "firstCampaign": true,
      "min": {
        "value": 500,
        "currency": {
          "_id": "/EUR/Euro"
        }
      }
    }
  }
}